{
    "antifeatures": {
        "Ads": "এই অ্যাপ্লিকেশনটিতে বিজ্ঞাপন আছে",
        "DisabledAlgorithm": "এই অ্যাপটির একটি দুর্বল নিরাপত্তা স্বাক্ষর আছে",
        "KnownVuln": "এই অ্যাপে একটি পরিচিত নিরাপত্তা দুর্বলতা রয়েছে",
        "NSFW": "এই অ্যাপে এমন বস্তু আছে যা সর্বত্র প্রচারিত বা দৃশ্যমান হওয়া উচিত নয়",
        "NoSourceSince": "অ্যাপের উৎস কোড আর নেই , কোনো হালনাগাদ সম্ভব নয়",
        "NonFreeAdd": "এই অ্যাপটি নন-ফ্রি অ্যাড-অন প্রচার করে",
        "NonFreeAssets": "এই অ্যাপটি নন-ফ্রি উপাদান আছে",
        "NonFreeDep": "এই অ্যাপটি অন্য নন-ফ্রি অ্যাপের উপর নির্ভরশীল",
        "NonFreeNet": "এই অ্যাপটি অমুক্ত নেটওয়ার্ক সেবা প্রচার করে",
        "Tracking": "এই অ্যাপ্লিকেশনটি তোমার ক্রিয়াকলাপটিকে নজরদারী করে এবং প্রতিবেদন পাঠায়",
        "UpstreamNonFree": "এই অ্যাপটির আপস্ট্রিম কোড সম্পূর্ণ মুক্ত নয়"
    },
    "app_categories": {
        "Connectivity": "সংযোগ",
        "Development": "ডেভেলপমেন্ট",
        "Games": "খেলা",
        "Graphics": "গ্রাফিক্স",
        "Internet": "ইন্টারনেট",
        "Money": "অর্থ",
        "Multimedia": "মাল্টিমিডিয়া",
        "Navigation": "নেভিগেশন",
        "Phone & SMS": "ফোন এবং এসএমএস",
        "Reading": "পড়া হচ্ছে",
        "Science & Education": "বিজ্ঞান ও শিক্ষা",
        "Security": "নিরাপত্তা",
        "Sports & Health": "খেলাধুলা ও স্বাস্থ্য",
        "System": "সিস্টেম",
        "Theming": "থিমিং",
        "Time": "সময়",
        "Writing": "লেখা",
        "show_all_packages": "সকল %d প্যাকেজ দেখান"
    },
    "index": {
        "download_fdroid": "এফ-ড্রইড ডাউনলোউড করো",
        "gpg_signature": "পিজিপি স্বাক্ষর",
        "introduction": "এফ-ড্রইড এমন একটি তালিকা যা অ্যান্ড্রয়েড প্ল্যাটফর্মের জন্য ফস্ (ফ্রি এবং মুক্ত উৎসবিশিষ্ট) অ্যাপ্লিকেশনের একটি অ্যাপস্টোরের মত কাজ করে। এর ক্লায়েন্ট অ্যাপটি তোমার অ্যাপের হালনাগাদগুলো দেখতে এবং ইন্সটল করতে এবং নজর রাখা সহজ করে।",
        "screenshot": "এফ-ড্রইড অ্যান্ড্রয়েড অ্যাপের স্ক্রিনশট",
        "title": "এফ-ড্রইড কী?"
    },
    "mirrors": {
        "cn": "চীনা মূলভূমি",
        "de": "জার্মানি",
        "indiana": "ইন্ডিয়ানা, যুক্তরাষ্ট্র",
        "se": "সুইডেন",
        "tw": "তাইওয়ান",
        "ua": "ইউক্রেন"
    },
    "navigation": {
        "about": "সম্পর্কে",
        "apps": "অ্যাপ",
        "contribute": "অংশগ্রহণ",
        "documentation": "নির্দেশিকা",
        "edit_on_gitlab": "গিটল্যাবে সম্পাদনা করুন",
        "forum": "ফোরাম",
        "issues": "সমস্যা",
        "news": "খবর",
        "translate_on_weblate": "ওয়েবলেটে অনুবাদ করুন"
    },
    "news": {
        "by": "লেখক",
        "newer_posts": "← নতুন নিবন্ধ",
        "older_posts": "পুরোনো নিবন্ধ →",
        "posted_on": "{{ post_date }} এ ছাঁপানো"
    },
    "package": {
        "added_on": "{{ package_added_date }} এ যোগ করা হয়েছে",
        "anti_features": "অপ-বৈশিষ্ট্য",
        "anti_features_warning": "এই অ্যাপে কিছু বৈশিষ্ট্য আছে যেগুলো আপনার পছন্দ নাও হতে পারে।",
        "author": "লেখক",
        "build_log": "বিল্ড লগ",
        "build_metadata": "বিল্ডের মেটাডাটা",
        "changelog": "পরিবর্তনতালিকা",
        "donate": "অনুদান",
        "download": "{{ file_extension }} ডাউনলোড করো",
        "flattr": "Flattr",
        "gpg_signature": "পিজিপি স্বাক্ষর",
        "issue_tracker": "সমস্যা ট্র্যাকার",
        "liberapay": "লিবেরাপে",
        "license": "অনুমতিপত্র",
        "minimum_android_version": "এই সংস্করণটি চালাতে গেলে অ্যান্ড্রয়েড {{ android_version }} বা নতুন কোনো সংস্করণ লাগবে।",
        "new_in_version": "{{ latest_version }} সংস্করণে নতুন যা এসেছে",
        "opencollective": "সমষ্টিগত চেষ্টা",
        "package_icon_alt": "প্যাকেজ আইকন",
        "package_screenshot_alt": "অ্যাপ স্ক্রীনশট",
        "packages": "প্যাকেজগুলো",
        "permissions": "অনুমতিগুলো",
        "signed_by_developer": "এটা আসল ডেভেলপার নিজে বিল্ড এবং সাইন করেছেন।",
        "signed_by_fdroid": "এটা এফ-ড্রইড নিজে বিল্ড এবং সাইন করেছে, এবং এর গ্যারান্টি আছে যে এটি <a href=\"{{ source_code_url }}\">এই সোর্স টারবল</a> থেকে তৈরি।",
        "source_code": "সোর্স কোড",
        "suggest_downloading_via_fdroid": "যদিও নিচে এপিকে ডাউনলোড দেয়া আছে, তোমার এটা জেনে রাখা উচিত যে এগুলো ইন্সটল করলে তুমি হালনাগাদের বিজ্ঞপ্তি পাবে না এবং এটা ডাউনলোডের পদ্ধতি হিসেবে কম নিরাপদ। আমরা তোমাকে এফ-ড্রইড গ্রাহক অ্যাপটি ইন্সটল ও ব্যবহার করার পরামর্শ দিব।",
        "suggested": "প্রস্তাবিত",
        "translation": "অনুবাদ",
        "version_info": "<b>{{ package_version }} সংস্করণ</b> ({{ package_version_code }}) - প্যাকেজ সংস্করণ কোড",
        "versions": "সংস্করণ",
        "website": "ওয়েবসাইট"
    },
    "permissions": {
        "permdesc_acceptHandovers": "অন্য কোনও অ্যাপ দিয়ে কল করলে এই অ্যাপটিকে সেটি চালিয়ে যেতে দেয়।",
        "permdesc_accessBackgroundLocation": "অ্যাপটি ব্যবহার না করার সময়ও এই অ্যাপটি যেকোনও সময় লোকেশন অ্যাক্সেস করতে পারে।",
        "permdesc_accessCoarseLocation": "এই অ্যাপটি ব্যবহার করার সময় আপনি লোকেশন পরিষেবাগুলি থেকে আপনার আনুমানিক লোকেশন পেতে পারেন। আপনার লোকেশন পেতে আপনার ডিভাইসের লোকেশন পরিষেবা চালু করতে হবে।",
        "permdesc_accessDrmCertificates": "ডিআরএম পত্রগুলোর বিধান এবং ব্যবহার করার অনুমতি দাও৷ সাধারণ অ্যাপ্লিকেশানের জন্য প্রয়োজন হয় না৷",
        "permdesc_accessFineLocation": "এই অ্যাপটি ব্যবহার করার সময় আপনি লোকেশন পরিষেবাগুলি থেকে আপনার যথাযথ লোকেশন পেতে পারেন। আপনার লোকেশন পেতে আপনার ডিভাইসের লোকেশন পরিষেবা চালু করতে হবে। এটি ব্যাটারির ব্যবহার বাড়িয়ে তুলতে পারে।",
        "permdesc_accessImsCallService": "আপনার হস্তক্ষেপ ছাড়াই কল করতে অ্যাপ্লিকেশানটিকে আইএমএস(IMS) পরিষেবা ব্যবহারের অনুমতি দাও৷",
        "permdesc_accessLocationExtraCommands": "অ্যাপকে অবস্থানের সাথে সম্পর্কিত তথ্য অতিরিক্ত আদেশগুলো ব্যবহারের অনুমোদন দেয়৷ এটি অ্যাপ্লিকেশানটিকে জিপিএস বা অন্যান্য অবস্থান নির্ণয়ের সাথে সম্পর্কিত উৎসগুলোর ক্রিয়াপ্রণালির নিয়ন্ত্রণকে মঞ্জুর করতে পারে৷",
        "permdesc_accessNetworkConditions": "নেটওয়ার্ক অবস্থার উপর পর্যবেক্ষণের জন্য একটি অ্যাপ্লিকেশানকে শোনার জন্য অনুমতি নেয়৷ সধারণ অ্যাপ্লিকেশানগুলির জন্য কখনই প্রয়োজন হয় না৷",
        "permdesc_accessNetworkState": "কোন নেটওয়ার্কগুলি বিদ্যমান এবং সংযুক্ত রয়েছে তার তথ্য দেখার জন্য অ্যাপ্লিকেশানটিকে অনুমতি প্রদান করে৷",
        "permdesc_accessNotifications": "অ্যাপ্লিকেশানটিকে অন্যান্য অ্যাপ্লিকেশান যেগুলি পোস্ট করে সেগুলি সমেত, বিজ্ঞপ্তিগুলি পুনরুদ্ধার করতে, পরীক্ষা করতে এবং সাফ করার অনুমতি দেয়৷",
        "permdesc_accessWifiState": "অ্যাপ্লিকেশানটিকে ওয়াই-ফাই নেটওয়ার্কিং সম্পর্কিত তথ্য, যেমন ওয়াই-ফাই সক্ষম করা আছে কিনা এবং সংযুক্ত ওয়াই-ফাই ডিভাইসগুলির নাম দেখার অনুমতি প্রদান করে৷",
        "permdesc_accessWimaxState": "অ্যাপ্লিকেশানটিকে WiMAX সক্ষম করা আছে কিনা সে বিষয়ে নিশ্চিত হতে এবং সংযুক্ত যেকোনো WiMAX নেটওয়ার্ক সম্পর্কিত তথ্য সম্বন্ধে নিশ্চিত হওয়ার অনুমতি প্রদান করে৷",
        "permdesc_access_notification_policy": "অ্যাপটিকে 'বিরক্ত করবেন না' কনফিগারেশন পড়া এবং লেখার অনুমতি দেয়।",
        "permdesc_activityRecognition": "এই অ্যাপ আপনার শারীরিক কার্যক্রম শনাক্ত করতে পারবে।",
        "permdesc_addVoicemail": "অ্যাপ্লিকেশানকে আপনার ভয়েসমেইল ইনবক্সে মেসেজ যোগ করার অনুমতি দেয়৷",
        "permdesc_answerPhoneCalls": "অ্যাপটিকে ইনকামিং ফোন কলের উত্তর দিতে দেয়।",
        "permdesc_audioWrite": "আপনার গানের সংগ্রহ পরিবর্তন করতে অ্যাপকে অনুমতি দাও।",
        "permdesc_backgroundCamera": "এই অ্যাপটি যেকোনো সময় ক্যামেরা ব্যবহার করে ছবি তুলতে বা ভিডিও রেকর্ড করতে পারবে।",
        "permdesc_bindCarrierMessagingService": "ধারককে, একটি ক্যারিয়ার মেসেজিং পরিষেবার উচ্চ স্তরের ইন্টারফেসে জুড়তে অনুমতি দেয়৷ সধারণ অ্যাপ্লিকেশনগুলির জন্য কখনই প্রয়োজন হয় না৷",
        "permdesc_bindCarrierServices": "কোনো পরিষেবা প্রদানকারীর সাথে যুক্ত হতে ধারককে অনুমতি দাও। সাধারণ অ্যাপ্লিকেশানের জন্য প্রয়োজন হয় না।",
        "permdesc_bindCellBroadcastService": "সেল ব্রডকাস্ট মেসেজ পেলে এটি সেল ব্রডকাস্ট মডিউলের সাথে তা যুক্ত করে যাতে সেই মেসেজ ফরওয়ার্ড করা যায়। তোমাকে জরুরি অবস্থা সম্পর্কে সাবধান করতে কিছু জায়গায় সেল ব্রডকাস্ট অ্যালার্ট মেসেজ দেয়া হয়। জরুরি সেল ব্রডকাস্ট পাওয়া গেলে ক্ষতিকারক অ্যাপ তোমার ডিভাইসের পারফর্ম্যান্স ও অপারেশনে বাধা সৃষ্টি করতে পারে।",
        "permdesc_bindConditionProviderService": "ধারককে, একটি শর্ত প্রদানকারী পরিষেবার উচ্চ স্তরের ইন্টারফেসে জুড়তে অনুমতি দেয়৷ সধারণ অ্যাপ্লিকেশানগুলির জন্য কখনই প্রয়োজন হয় না৷",
        "permdesc_bindDreamService": "ধারককে, একটি স্বপ্নের পরিষেবার উচ্চ স্তরের ইন্টারফেসে জুড়তে অনুমতি দেয়৷ সধারণ অ্যাপ্লিকেশানগুলির জন্য কখনই প্রয়োজন হয় না৷",
        "permdesc_bindNotificationListenerService": "ধারককে, একটি বিজ্ঞপ্তি শ্রোতা পরিষেবার উচ্চ স্তরের ইন্টারফেসে জুড়তে অনুমতি দেয়৷ সধারণ অ্যাপ্লিকেশানগুলির জন্য কখনই প্রয়োজন হয় না৷",
        "permdesc_bind_connection_service": "কল করা/গ্রহণ করার জন্য অ্যাপ্লিকেশনটিকে টেলিফোন পরিষেবার সাথে ইন্টার‌্যাক্ট করার অনুমতি দেয়।",
        "permdesc_bind_incall_service": "ব্যবহারকারী কখন এবং কীভাবে কলে-থাকা স্ক্রীণটিকে দেখতে পাবেন, অ্যাপ্লিকেশানটিকে তা নিয়ন্ত্রণ করতে দেয়৷",
        "permdesc_bluetooth": "ফোনের ব্লুটুথ কনফিগারেশন দেখতে, এবং যুক্ত ডিভাইসগুলির সাথে সংযোগ স্থাপন এবং সংযোগের অনুরোধ স্বীকার করতে অ্যাপ্লিকেশানটিকে মঞ্জুর করে৷",
        "permdesc_bluetoothAdmin": "অ্যাপ্লিকেশানটিকে স্থানীয় ব্লুটুথ ফোনটিকে কনফিগার এবং দূরবর্তী ডিভাইসগুলি আবিষ্কার এবং এর সাথে যুক্ত করতে দেয়৷",
        "permdesc_bluetooth_advertise": "আশেপাশের ব্লুটুথ ডিভাইস বিজ্ঞাপন দেওয়ার জন্য অ্যাপকে অনুমতি দেয়",
        "permdesc_bluetooth_connect": "অ্যাপটিকে যুক্ত হওয়া ব্লুটুথ যন্ত্রের সাথে সংযোগের অনুমতি দেয়",
        "permdesc_bluetooth_scan": "অ্যাপটিকে কাছাকাছি ব্লুটুথ যন্ত্র খুঁজে দেখতে এবং তার সাথে সংযুক্ত হওয়ার অনুমতি দেয়",
        "permdesc_bodySensors": "অ্যাপ্লিকেশানটিকে আপনার শারীরিক অবস্থা যেমন, আপনার হৃৎস্পন্দন পর্যবেক্ষণ করে এমন সেন্সরগুলি অ্যাক্সেস করতে মঞ্জুরি দেয়।",
        "permdesc_broadcastSticky": "স্টিকি সম্প্রচারগুলি পাঠাতে অ্যাপ্লিকেশানটিকে মঞ্জুর করে, যা সম্প্রচার শেষ হয়ে যাওয়ার পরও উপলব্ধ থাকে৷ খুব বেশি পরিমাণে ব্যবহার করার ফলে ফোনটিকে ধীরগতির করে দিতে পারে অথবা খুব বেশি পরিমাণ মেমরি ব্যবহারের ফলে এটি যথাযথভাবে কাজ নাও করতে পারে৷",
        "permdesc_callCompanionApp": "ডিভাইসে চালু আছে এমন কল দেখতে এবং নিয়ন্ত্রণ করতে অ্যাপকে অনুমতি দেয়। কল করা হচ্ছে যে নম্বরে সেটি এবং কলের স্ট্যাটাস কী সেই সব তথ্য এতে অন্তর্ভুক্ত।",
        "permdesc_callPhone": "অ্যাপ্লিকেশানটিকে আপনার হস্তক্ষেপ ছাড়াই ফোন নম্বরগুলিতে কল করতে মঞ্জুর করে৷ এটি অপ্রত্যাশিত পরিমাণ খরচা বা কলের কারণ হতে পারে৷ মনে রাখবেন, এটি অ্যাপ্লিকেশানটির দ্বারা জরুরি নম্বরগুলিতে কল করাকে অনুমতি দেয় না৷ ক্ষতিকারক অ্যাপ্লিকেশানগুলি আপনার সম্মতি ছাড়াই কল করার ফলে আপনাকে অহেতুক পেমেন্ট করতে হতে পারে৷",
        "permdesc_camera": "এই অ্যাপটি যখন ব্যবহার করা হচ্ছে, তখন ক্যামেরা ব্যবহার করে ছবি তুলতে বা ভিডিও রেকর্ড করতে পারবে।",
        "permdesc_cameraOpenCloseListener": "কোনও ক্যামেরা ডিভাইস খোলা (অ্যাপ্লিকেশনের সাহায্যে) বা বন্ধ করা হলে এই অ্যাপ কলব্যাক গ্রহণ করতে পারে।",
        "permdesc_changeNetworkState": "অ্যাপ্লিকেশানকে নেটওয়ার্ক সংযোগ অবস্থা পরিবর্তন করার অনুমতি দেয়৷",
        "permdesc_changeTetherState": "অ্যাপ্লিকেশানকে টেথার করা নেটওয়ার্ক সংযোগ অবস্থা পরিবর্তন করার অনুমতি দেয়৷",
        "permdesc_changeWifiMulticastState": "একটি ওয়াই-ফাই নেটওয়ার্কে মাল্টিকাস্ট ঠিকানাগুলি ব্যবহার করে শুধুমাত্র আপনার ফোনের পরিবর্তে সমস্ত ডিভাইসে পাঠানো প্যাকেটগুলি গ্রহণ করতে অ্যাপ্লিকেশানটিকে মঞ্জুর করে৷ এটি নন-মাল্টিকাস্ট মোডের তুলনায় বেশি পাওয়ার ব্যবহার করে৷",
        "permdesc_changeWifiState": "ওয়াই-ফাই অ্যাক্সেস পয়েন্টের সাথে সংযোগ স্থাপন করতে বা সংযোগ বিচ্ছিন্ন করতে এবং ওয়াই-ফাই নেটওয়ার্কগুলির জন্য ডিভাইস কনফিগারেশনে পরিবর্তন করতে অ্যাপ্লিকেশানটিকে মঞ্জুর করে৷",
        "permdesc_changeWimaxState": "WiMAX নেটওয়ার্কগুলির সাথে ফোনটির সংযোগ স্থাপন করতে এবং সংযোগ বিচ্ছিন্ন করতে অ্যাপ্লিকেশানটিকে মঞ্জুর করে৷",
        "permdesc_connection_manager": "টেলিকম সংযোগগুলি পরিচালনা করতে অ্যাপ্লিকেশানটিকে অনুমোদিত করে৷",
        "permdesc_control_incall_experience": "অ্যাপ্লিকেশনটিকে কলে-থাকা এক ব্যবহারকারী অভিজ্ঞতা সরবরাহের অনুমতি দেয়।",
        "permdesc_createNetworkSockets": "নেটওয়ার্ক সকেটগুলি তৈরি করতে এবং কাস্টম নেটওয়ার্ক প্রোটোকলগুলি ব্যবহার করতে অ্যাপ্লিকেশানটিকে মঞ্জুর করে৷ ব্রাউজার ও অন্যান্য অ্যাপ্লিকেশানগুলি ইন্টারনেটে ডেটা প্রেরণ করার উপায় সরবরাহ করে, তাই ইন্টারনেটে ডেটা প্রেরণ করতে এই অনুমতিটির প্রয়োজন হয় না৷",
        "permdesc_disableKeyguard": "কী-লক এবং যেকোনো সংশ্লিষ্ট পাসওয়ার্ড সুরক্ষা অক্ষম করতে অ্যাপ্লিকেশানটিকে মঞ্জুর করে৷ উদাহরণস্বরূপ, একটি ইনকামিং ফোন কল গ্রহণ করার সময়ে ফোনটি কী-লক অক্ষম করে, তারপরে কল শেষ হয়ে গেলে কী-লকটিকে আবার সক্ষম করে৷",
        "permdesc_enableCarMode": "অ্যাপ্লিকেশানকে গাড়ি কোড সক্ষম করতে দেয়৷",
        "permdesc_exemptFromAudioRecordRestrictions": "অডিও রেকর্ড করার বিধিনিষেধ থেকে অ্যাপটি বাদ দাও।",
        "permdesc_expandStatusBar": "অ্যাপ্লিকেশনটিকে স্ট্যাটাস বার প্রসারিত বা সঙ্কুচিত করতে দেয়৷",
        "permdesc_foregroundService": "অ্যাপটিকে ফোরগ্রাউন্ডের পরিষেবা ব্যবহার করতে দেয়।",
        "permdesc_fullScreenIntent": "এই অ্যাপকে বন্ধ করা যন্ত্রের, সম্পূর্ণ পর্দার ক্রিয়া হিসাবে বিজ্ঞপ্তি দেখানোর অনুমতি দেয়",
        "permdesc_getAccounts": "ফোনটির মেমরিতে থাকা অ্যাকাউন্টের তালিকাটি পেতে অ্যাপ্লিকেশানটিকে মঞ্জুর করে৷ এতে তোমার দ্বারা ইনস্টল করা অ্যাপ্লিকেশনগুলোর মাধ্যমে তৈরি যেকোনো অ্যাকাউন্ট অন্তর্ভুক্ত হতে পারে৷",
        "permdesc_getPackageSize": "অ্যাপ্লিকেশানকে এটির কোড, ডেটা, এবং ক্যাশে মাপ উদ্ধার করার অনুমতি দেয়",
        "permdesc_getTasks": "বর্তমানে ও সাম্প্রতিককালের সক্রিয় ক্রিয়াগুলি সম্বন্ধে তথ্য পুনরুদ্ধার করতে অ্যাপ্লিকেশানটিকে মঞ্জুর করে৷ এছাড়া এটি ডিভাইসটিতে কোন অ্যাপ্লিকেশানগুলি ব্যবহৃত হচ্ছে তার বিষয়ে তথ্য খুঁজে বের করতে অ্যাপ্লিকেশানটিকে মঞ্জুর করতে পারে৷",
        "permdesc_handoverStatus": "এই অ্যাপ্লিকেশানকে বর্তমান Android বীম স্থানান্তর সম্বন্ধে তথ্য গ্রহণ করার অনুমিত দেয়",
        "permdesc_highSamplingRateSensors": "২০০ হার্জের বেশি হারে অ্যাপকে নমুনা গ্রাহক তথ্য সংগ্রহের অনুমতি দাও",
        "permdesc_imagesWrite": "অ্যাপকে তোমার ছবির সংগ্রহ পরিবর্তন করার অনুমতি দাও।",
        "permdesc_install_shortcut": "একটি অ্যাপ্লিকেশানকে ব্যবহারকারীর হস্তক্ষেপ ছাড়াই হোমস্ক্রীণে শর্টকাটগুলি যোগ করার অনুমতি দেয়৷",
        "permdesc_invokeCarrierSetup": "ধারককে, ক্যারিয়ারের প্রদেয় কনফিগারেশন অ্যাপ্লিকেশানকে দিয়ে কাজ করানোর অনুমতি দেয়৷ সধারণ অ্যাপ্লিকেশানগুলির জন্য কখনই প্রয়োজন হয় না৷",
        "permdesc_killBackgroundProcesses": "অন্যান্য অ্যাপ্লিকেশানগুলির নেপথ্যে চলা প্রক্রিয়াগুলির সমাপ্তি ঘটাতে অ্যাপ্লিকেশানটিকে মঞ্জুর করে৷ এর ফলে অন্যান্য অ্যাপ্লিকেশানগুলি বন্ধ হয়ে যেতে পারে৷",
        "permdesc_manageFace": "ব্যবহার করার জন্য ফেস টেম্পলেট যোগ করা এবং মোছার পদ্ধতি গ্রহণ করতে অ্যাপটিকে অনুমতি দেয়৷",
        "permdesc_manageFingerprint": "ব্যবহার করার জন্য আঙ্গুলের ছাপের টেম্প্লেটগুলি যোগ করা এবং মোছার পদ্ধতিগুলি গ্রহন করতে অ্যাপ্লিকেশানটিতে অমুমতি দেয়৷",
        "permdesc_manageNetworkPolicy": "অ্যাপ্লিকেশানকে নেটওয়ার্ক নীতির পরিচালনা করতে এবং অ্যাপ্লিকেশান নির্দিষ্ট নীতিগুলি নির্ধারণ করতে দেয়৷",
        "permdesc_manageOngoingCalls": "তোমার যন্ত্রে চলমান কলের বিষয়ে বিবরণ দেখতে এবং এই কলগুলো নিয়ন্ত্রণ করতে অ্যাপকে অনুমতি দেয়।",
        "permdesc_manageOwnCalls": "কল করার অভিজ্ঞতা উন্নত করার জন্য অ্যাপকে সিস্টেমের মাধ্যমে তার কলগুলি রুট করতে দেয়।",
        "permdesc_manageProfileAndDeviceOwners": "অ্যাপ্লিকেশানগুলিকে প্রোফাইলের মালিকদের এবং ডিভাইসের মালিককে সেট করার অনুমতি দেয়৷",
        "permdesc_mediaLocation": "তোমার মিডিয়া সংগ্রহ থেকে লোকেশন দেখতে অ্যাপকে অনুমতি দাও।",
        "permdesc_modifyAudioSettings": "ভলিউম এবং যেখানে স্পিকার আউটপুট হিসাবে ব্যবহৃত হয় সেই সব ক্ষেত্রে গ্লোবাল অডিও সেটিংসের সংশোধন করতে অ্যাপ্লিকেশনটিকে মঞ্জুর করে৷",
        "permdesc_modifyNetworkAccounting": "অ্যাপ্লিকেশানগুলি অনুযায়ী কীভাবে নেটওয়ার্কের ব্যবহার ধার্য করা হবে তার সংশোধন করতে অ্যাপ্লিকেশানটিকে মঞ্জুর করে৷ সাধারণ অ্যাপ্লিকেশানগুলির ব্যবহার করার জন্য নয়৷",
        "permdesc_nfc": "অ্যাপ্লিকেশানকে নিয়ার ফিল্ড কমিউনিকেশন (NFC) ট্যাগ, কার্ড এবং রিডারগুলির সাথে যোগাযোগ করতে দেয়৷",
        "permdesc_persistentActivity": "মেমরিতে নিজের জন্য প্রয়োজনীয় জায়গা আলাদা করে রাখতে অ্যাপ্লিকেশানটিকে মঞ্জুর করে৷ এর ফলে অন্যান্য অ্যাপ্লিকেশানগুলির জায়গা সীমিত হয়ে পড়তে পারে ও ফোনটি অপেক্ষাকৃত ধীরগতির হয়ে পড়তে পারে৷",
        "permdesc_preferredPaymentInfo": "অ্যাপের মাধ্যমে পছন্দসই এনএফসি পেমেন্ট পরিষেবার তথ্য, যেমন রেজিস্ট্রার করার সহায়তা এবং রুট লক্ষ্য সম্পর্কিত তথ্য অ্যাক্সেস করার অনুমতি দেয়।",
        "permdesc_processOutgoingCalls": "অ্যাপ্লিকেশনকে কল চলাকালীন অন্য একটি নম্বরে কল পুনঃনির্দেশ বা কলটি একসথে বন্ধ করার সাথে ডায়াল করা নম্বরটি দেখতে দেয়৷",
        "permdesc_queryAllPackages": "অ্যাপকে সব ইনস্টল করা প্যাকেজ দেখার অনুমতি দেয়।",
        "permdesc_readCalendar": "এই অ্যাপটি আপনার ফোনে সংরক্ষিত সমস্ত ক্যালেন্ডার ইভেন্ট পড়তে এবং আপনার ক্যালেন্ডারের ডেটা শেয়ার বা সংরক্ষণ করতে পারে৷",
        "permdesc_readCallLog": "এই অ্যাপটি আপনার কলের ইতিহাস পড়তে পারে৷",
        "permdesc_readCellBroadcasts": "আপনার ডিভাইস দ্বারা প্রাপ্ত সেল সম্প্রচার পড়তে অ্যাপ্লিকেশানটিকে অনুমতি দেয়৷ কয়েকটি স্থানে আপনাকে জরুরি অবস্থার জন্য সতর্ক করতে জরুরি সতর্কতাগুলি বিতরণ করা হয়৷ যখন একটি জরুরি সেল সম্প্রচার প্রাপ্ত হয় তখন ক্ষতিকারক অ্যাপ্লিকেশানগুলি আপনার ডিভাইসের কার্য সম্পাদনা বা কার্যকলাপে প্রতিবন্ধকতার সৃষ্টি করতে পারে৷",
        "permdesc_readContacts": "এই অ্যাপকে আপনার ফোনে পরিচিতি সম্পর্কে সেভ করা ডেটা পড়ার অনুমতি দেয়। আপনার ফোনের যেসব অ্যাকাউন্ট পরিচিতি তৈরি করা হয়েছে, এই অ্যাপ সেই অ্যাকাউন্টও অ্যাক্সেস করতে পারবে। আপনার ইনস্টল করা কোনও অ্যাপ অ্যাকাউন্ট তৈরি করলে এটির মধ্যে সেটিও থাকতে পারে। এই অনুমতি অ্যাপকে আপনার পরিচিতি সংক্রান্ত ডেটা সেভ করতে দেয় এবং ক্ষতিকারক অ্যাপ আপনাকে না জানিয়ে পরিচিতি সংক্রান্ত ডেটা শেয়ার করতে পারে।",
        "permdesc_readHistoryBookmarks": "অ্যাপ্লিকেশানটিকে ব্রাউজার দ্বারা ঘুরে দেখা সমস্ত URL এর ইতিহাস এবং ব্রাউজারের বুকমার্কগুলি পড়ার অনুমতি দেয়৷ দ্রষ্টব্য: এই অনুমতিটি তৃতীয় পক্ষের ব্রাউজার বা ওয়েব ব্রাউজিং ক্ষমতা সহ অন্যান্য অ্যাপ্লিকেশানগুলিতে জারি করা সম্ভব নাও হতে পারে৷",
        "permdesc_readInstallSessions": "কোনো অ্যাপ্লিকেশানকে সেশনগুলি পড়ার অনুমতি দেয়। এটি সক্রিয় প্যাকেজ ইনস্টলেশনের বিশদ বিবরণ দেখতে দেয়।",
        "permdesc_readNetworkUsageHistory": "অ্যাপ্লিকেশানটিকে নিদিষ্ট নেটওয়ার্ক এবং অ্যাপ্লিকেশানগুলির জন্য পূর্বের নেটওয়ার্কের ব্যবহার পড়তে দেয়৷",
        "permdesc_readPhoneNumbers": "অ্যাপটিকে এই ডিভাইসের ফোন নম্বরগুলি অ্যাক্সেস করতে দেয়।",
        "permdesc_readPhoneState": "অ্যাপ্লিকেশানটিকে ডিভাইসের ফোন বৈশিষ্ট্যগুলিকে অ্যাক্সেস করার অনুমতি দেয়৷ এই অনুমতিটি অ্যাপ্লিকেশানটিকে একটি কল সক্রিয় থাকা অবস্থায় এবং দূরবর্তী নম্বর একটি কল দ্বারা সংযুক্ত থাকাকালীনও ফোন নম্বর এবং ডিভাইসের IDগুলি নির্ধারণ করার অনুমতি দেয়৷",
        "permdesc_readSms": "এই অ্যাপটি আপনার ফোনে স্টোর করা সমস্ত SMS (টেক্সট) মেসেজ পড়তে পারে৷",
        "permdesc_readSyncSettings": "অ্যাপ্লিকেশানটিকে একটি অ্যাকাউন্টের জন্য সিঙ্ক সেটিংস পড়ার অনুমতি দেয়৷ উদাহরণস্বরূপ, 'পিপল' অ্যাপ্লিকেশানটি কোনো অ্যাকাউন্টের সাথে সিঙ্ক করা আছে কিনা তা নির্ধারণ করতে পারে৷",
        "permdesc_readSyncStats": "অ্যাপ্লিকেশানটিকে একটি অ্যাকাউন্টের জন্য কতটা ডেটা সিঙ্ক হয়েছে এবং সিঙ্ক করা ইভেন্টের ইতিহাস সহ সিঙ্কের স্থিতি পড়ার অনুমতি দেয়৷",
        "permdesc_receiveBootCompleted": "অ্যাপ্লিকেশানকে সিস্টেম বুট হওযার পরে নিজেথেকে শুরু হওয়ার অনুমতি দেয়৷ এটির ফলে আপনার ফোন চালু হতে আরও বেশি সময় নিতে পারে এবং অ্যাপ্লিকেশানটিকে সারাক্ষণ চালু রেখে আপনার ফোনের সমগ্রিক গতীশীলতাকে ধীর করে৷",
        "permdesc_receiveMms": "অ্যাপ্লিকেশানটিকে MMS মেসেজ প্রাপ্ত করার এবং প্রক্রিয়া করার অনুমতি দেয়৷ এর মানে হল অ্যাপ্লিকেশানটি আপনার ডিভাইস থেকে পাঠানো মেসেজগুলিকে পর্যবেক্ষণ করতে পারে এবং মুছতে পারে সেগুলিকে আপনাকে না দেখিয়ে৷",
        "permdesc_receiveSms": "অ্যাপ্লিকেশানটিকে এসএমএস প্রাপ্ত করার এবং প্রক্রিয়া করার অনুমতি দেয়৷ এর মানে হল অ্যাপ্লিকেশানটি আপনার ডিভাইস থেকে পাঠানো বার্তাগুলিকে পর্যবেক্ষণ করতে পারে এবং মুছতে পারে সেগুলিকে আপনাকে না দেখিয়ে৷",
        "permdesc_receiveWapPush": "অ্যাপ্লিকেশানটিকে WAP মেসেজ প্রাপ্ত করার এবং প্রক্রিয়া করার অনুমতি দেয়৷ এর মানে হল অ্যাপ্লিকেশানটি আপনার ডিভাইস থেকে পাঠানো মেসেজগুলিকে পর্যবেক্ষণ করতে পারে এবং মুছতে পারে সেগুলিকে আপনাকে না দেখিয়ে৷",
        "permdesc_recordAudio": "এই অ্যাপটি যখন ব্যবহার করা হচ্ছে, তখন মাইক্রোফোন ব্যবহার করে অডিও রেকর্ড করতে পারবে।",
        "permdesc_recordBackgroundAudio": "এই অ্যাপটি মাইক্রোফোন ব্যবহার করে যেকোনও সময় অডিও রেকর্ড করতে পারবে।",
        "permdesc_register_call_provider": "নতুন টেলিকম সংযোগ নিবন্ধিত করতে অ্যাপ্লিকেশানটিকে অনুমোদিত করে৷",
        "permdesc_register_sim_subscription": "অ্যাপ্লিকেশানটিকে নতুন টেলিকম সিম সংযোগগুলি নিবন্ধিত করতে অনুমোদিত করে৷",
        "permdesc_removeDrmCertificates": "কোনো অ্যাপ্লিকেশানকে DRM শংসাপত্রগুলি সরানোর অনুমতি দেয়। সাধারণ অ্যাপ্লিকেশানগুলির জন্য কখনো প্রয়োজন হয় না।",
        "permdesc_reorderTasks": "অ্যাপ্লিকেশানটিকে কার্যগুলিকে পুরোভাগে এবং পশ্চাদপটে সরানোর অনুমতি দেয়৷ অ্যাপ্লিকেশানটি আপনার ইনপুট ছাড়া এটি করতে পারে৷",
        "permdesc_requestDeletePackages": "একটি অ্যাপ্লিকেশানকে প্যাকেজগুলি মুছে দেওয়ার অনুরোধ জানাতে দেয়৷",
        "permdesc_requestIgnoreBatteryOptimizations": "কোনো অ্যাপের জন্য ব্যাটারি অপ্টিমাইজেশন উপেক্ষা করতে সেটিকে অনুমতির চাওয়ার মঞ্জুরি দেয়৷",
        "permdesc_requestInstallPackages": "একটি অ্যাপ্লিকেশানকে প্যাকেজগুলির ইনস্টল করার অনুরোধ জানাতে অনুমতি দেয়৷",
        "permdesc_requestPasswordComplexity": "এটি অ্যাপটিকে স্ক্রিন লকের জটিলতার লেভেল বুঝতে সাহায্য করে (খুব বেশি, মাঝারি, অল্প জটিল বা কোনও জটিলতা নেই), যা স্ক্রিন লকটি সম্ভবত কত দীর্ঘ ও সেটির ধরন কীরকম, তার ইঙ্গিত দেয়। এই অ্যাপটি একটি নির্দিষ্ট লেভেল পর্যন্ত স্ক্রিন লক আপডেট করার সাজেশনও দিতে পারে, তবে ব্যবহারকারী তা উপেক্ষা করে অন্য কোথাও চলে যেতে পারেন। মনে রাখবেন যে স্ক্রিন লক সাধারণভাবে লেখা থাকে না, তাই অ্যাপ কখনও আসল পাসওয়ার্ড জানতে পারে না।",
        "permdesc_route_media_output": "অ্যাপ্লিকেশানটিকে মিডিয়াকে বাইরের ডিভাইসে আউটপুট করার অনুমতি দেয়৷",
        "permdesc_runInBackground": "এই অ্যাপটি ব্যাকগ্রাউন্ডে চালু থাকতে পারে। ফলে ব্যাটারি দ্রুত ফুরিয়ে যেতে পারে।",
        "permdesc_sdcardRead": "অ্যাপটিকে শেয়ার করা স্টোরেজের কন্টেন্ট পড়ার জন্য অনুমতি দাও।",
        "permdesc_sdcardWrite": "অ্যাপটিকে শেয়ার করা স্টোরেজের কন্টেন্ট লেখার জন্য অনুমতি দাও।",
        "permdesc_sendSms": "অ্যাপ্লিকেশানটিকে এসএমএস পাঠাতে অনুমতি দেয়৷ এর জন্য অপ্রত্যাশিত চার্জ কাটা হতে পারে ৷ ক্ষতিকারক অ্যাপ্লিকেশনগুলি আপনার নিশ্চিতকরণ ছাড়া মেসেজ পাঠানোর মাধ্যমে আপনাকে অর্থ চার্জ করতে পারে৷",
        "permdesc_setAlarm": "অ্যাপ্লিকেশনকে একটি ইনস্টল করা অ্যালার্ম অ্যাপ্লিকেশনে একটি অ্যালার্ম সেট করতে দেয়৷ কিছু অ্যালার্ম অ্যাপ্লিকেশনগুলিতে এই বিশিষ্ট নাও হতে পারে৷",
        "permdesc_setInputCalibration": "অ্যাপ্লিকেশানকে টাচ স্ক্রীণের ক্রমাঙ্গন প্যারামিটার সংশোধন করতে দেয়৷ সাধারণ অ্যাপ্লিকেশানগুলির জন্য দরকারী নয়৷",
        "permdesc_setTimeZone": "অ্যাপ্লিকেশনকে ফোনের সময় অঞ্চল পরিবর্তন করতে দেয়৷",
        "permdesc_setWallpaper": "অ্যাপ্লিকেশানটিকে আপনার সিস্টেমের ওয়ালপেপার সেট করতে দেয়৷",
        "permdesc_setWallpaperHints": "অ্যাপ্লিকেশানটিকে আপনার সিস্টেমের ওয়ালপেপারের আকারের হিন্ট সেট করতে দেয়৷",
        "permdesc_sim_communication": "অ্যাপ্লিকেশানটিকে সিম কার্ডে কমান্ডগুলি পাঠানোর অনুমতি দেয়৷ এটি খুবই বিপজ্জনক৷",
        "permdesc_startViewPermissionUsage": "কোনও অ্যাপের কোনও নির্দিষ্ট অনুমতির ব্যবহার শুরু করার ক্ষেত্রে হোল্ডারকে সাহায্য করে। সাধারণত অ্যাপের জন্য এটির পরিবর্তন হওয়ার কথা নয়।",
        "permdesc_statusBar": "অ্যাপ্লিকেশনকে স্ট্যাটাস বার অক্ষম করতে এবং সিস্টেম আইকনগুলি সরাতে দেয়৷",
        "permdesc_statusBarService": "অ্যাপ্লিকেশানটিকে স্থিতি দন্ডে থাকতে দেয়৷",
        "permdesc_subscribedFeedsRead": "অ্যাপ্লিকেশানকে বর্তমানে সিঙ্ক করা ফিডগুলির সম্পর্কে বিবরণ পেতে দেয়৷",
        "permdesc_systemAlertWindow": "এই অ্যাপটি অন্যান্য অ্যাপের উপরে বা স্ক্রীনের অন্যান্য অংশে উপস্থিত হতে পারে৷ এটি সাধারণ অ্যাপ ব্যবহারের ক্ষেত্রে হস্তক্ষেপ করতে এবং অন্যান্য অ্যাপের প্রদর্শিত হওয়ার অবস্থাকে পরিবর্তিত করতে পারে৷",
        "permdesc_systemCamera": "এই সুবিধাপ্রাপ্ত বা সিস্টেম অ্যাপ যেকোনও সময় সিস্টেমের ক্যামেরা ব্যবহার করে ছবি তুলতে ও ভিডিও রেকর্ড করতে পারে। এর জন্য এই অ্যাপকে android.permission.CAMERA অনুমতি লাগবে",
        "permdesc_transmitIr": "অ্যাপ্লিকেশানটিকে ফোনের ইনফ্রারেড ট্রান্সমিটার ব্যবহার করার অনুমতি দেয়৷",
        "permdesc_uninstall_shortcut": "অ্যাপ্লিকেশানটিকে ব্যবহারকারীর হস্তক্ষেপ ছাড়াই হোমস্ক্রীণের শর্টকাটগুলি সরানোর অনুমতি দেয়৷",
        "permdesc_useBiometric": "অ্যাপটিকে যাচাইকরণের জন্য বায়োমেট্রিক হার্ডওয়্যার ব্যবহার করার অনুমতি দেয়",
        "permdesc_useDataInBackground": "এই অ্যাপটি পটভূমিতে ডেটা ব্যবহার করতে পারে। ফলে ডেটার ব্যবহার বেড়ে যেতে পারে।",
        "permdesc_useFaceAuthentication": "অ্যাপকে যাচাইকরণের জন্য মুখের সাহায্যে আনলক করার হার্ডওয়্যার ব্যবহার করতে দেয়",
        "permdesc_useFingerprint": "অনুমোদনের জন্য আঙ্গুলের ছাপ নেওয়ার হার্ডওয়্যার ব্যবহার করতে অ্যাপ্লিকেশানটিতে অনুমতি দেয়",
        "permdesc_use_sip": "অ্যাপ্লিকেশানকে SIP কল করতে ও গ্রহণ করতে অনুমতি দেয়।",
        "permdesc_uwb_ranging": "অ্যাপকে আশেপাশের আলট্রা ওয়াইডব্যান্ড যন্ত্রগুলোর আপেক্ষিক অবস্থান নির্ণয় করার অনুমতি দাও",
        "permdesc_vibrate": "অ্যাপ্লিকেশানকে কম্পক নিয়ন্ত্রণ করতে দেয়৷",
        "permdesc_vibrator_state": "ভাইব্রেট করছে কিনা তা জানার অনুমতি দাও।",
        "permdesc_videoWrite": "আপনার ভিডিও সংগ্রহ পরিবর্তন করতে অ্যাপকে অনুমতি দাও।",
        "permdesc_wakeLock": "অ্যাপ্লিকেশানকে ফোনকে নিদ্রায় যাওয়া থেকে প্রতিরোধ করার মঞ্জুরি দেয়৷",
        "permdesc_writeCalendar": "এই অ্যাপটি আপনার ফোনে ক্যালেন্ডার ইভেন্টগুলি যোগ করতে, সরাতে বা পরিবর্তিত করতে পারে৷ এই অ্যাপটি মেসেজ পাঠাতে পারে যা ক্যালেন্ডারের মাললিকের থেকে এসেছে বলে মনে হয় বা ইভেন্টগুলিকে তাদের মালিকদের না জানিয়েই পরিবর্তিত করতে পারে৷",
        "permdesc_writeCallLog": "ইনকামিং ও আউটগোয়িং কলগুলি সম্পর্কিত ডেটা সহ আপনার ফোনের কল লগ পরিবর্তন করতে দেয়৷ ক্ষতিকারক অ্যাপ্লিকেশানগুলি এটিকে আপনার কল লগ মুছে দিতে বা পরিবর্তন করতে ব্যবহার করতে পারে৷",
        "permdesc_writeContacts": "এই অ্যাপকে আপনার ফোনে পরিচিতি সম্পর্কে সেভ করা ডেটা পরিবর্তন করার অনুমতি দেয়। এই অনুমতি অ্যাপকে যোগাযোগ সংক্রান্ত ডেটা মুছতে দেয়।",
        "permdesc_writeGeolocationPermissions": "অ্যাপ্লিকেশানকে ব্রাউজারের ভূঅবস্থানিক অনুমতি সংশোধন করতে দেয়৷ ক্ষতিকারক অ্যাপ্লিকেশানগুলি নির্বিচারে ওয়েব সাইটগুলিতে অবস্থানের ডেটা পাঠানো সক্ষম করতে এটি ব্যবহার করতে পারে৷",
        "permdesc_writeHistoryBookmarks": "অ্যাপ্লিকেশনটিকে আপনার ফোনে সঞ্চিত ব্রাউজারের ইতিহাস বা বুকমার্কগুলি পরিবর্তন করতে দেয়৷ এটি অ্যাপ্লিকেশনটিকে ব্রাউজার ডেটা মুছে দিতে বা পরিবর্তন করতে দেয়৷ দ্রষ্টব্য: এই অনুমতি তৃতীয় পক্ষের ব্রাউজারগুলির বা ওয়েব ব্রাউজিং ক্ষমতা সম্পন্ন অন্যান্য অ্যাপ্লিকেশনগুলি দ্বারা বলবৎ নাও হতে পারে৷",
        "permdesc_writeSettings": "অ্যাপ্লিকেশানকে সিস্টেমের সেটিংস ডেটা সংশোধন করতে দেয়৷ ক্ষতিকারক অ্যাপ্লিকেশানগুলি আপনার সিস্টেমের কনফিগারেশন নষ্ট করতে পারে৷",
        "permdesc_writeSyncSettings": "একটি অ্যাকাউন্টের জন্য সমন্বয় সেটিংস সংশোধন করতে একটি অ্যাপ্লিকেশানকে অনুমতি দেয়৷ উদাহরণস্বরূপ, এটি একটি অ্যাকাউন্টের সাথে \"পিপল\" অ্যাপ্লিকেশানের সমন্বয় সক্ষম করার কাজে ব্যবহৃত হতে পারে৷",
        "permgroupbackgroundrequest_location": "অ্যাপটিকে ব্যাকগ্রাউন্ডে চলতে অনুমতি দাও।",
        "permgroupbackgroundrequestdetail_location": "তুমি যখন অ্যাপটি ব্যবহার করবে শুধুমাত্র তখনই অ্যাপটি তোমার বর্তমান শারীরিক অবস্থান জানতে পারবে",
        "permgroupdesc_activityRecognition": "শারীরিক অ্যাক্টিভিটি অ্যাক্সেস করার অনুমতি দাও",
        "permgroupdesc_calendar": "আপনার ক্যালেন্ডারে অ্যাক্সেস",
        "permgroupdesc_calllog": "ফোন কল লগ পড়ে এবং দেখে",
        "permgroupdesc_camera": "ছবি তোলা এবং ভিডিও রেকর্ড",
        "permgroupdesc_contacts": "আপনার পরিচিতিগুলিতে অ্যাক্সেস",
        "permgroupdesc_location": "এই ডিভাইসের লোকেশন অ্যাক্সেস",
        "permgroupdesc_microphone": "অডিও রেকর্ড",
        "permgroupdesc_nearby_devices": "আশেপাশের যন্ত্র খুঁজে দেখো ও তার সাথে সংযুক্ত হও",
        "permgroupdesc_phone": "ফোন কলগুলি এবং পরিচালনা",
        "permgroupdesc_sensors": "আপনার অত্যাবশ্যক লক্ষণগুলির সম্পর্কে সেন্সর ডেটা অ্যাক্সেস করে",
        "permgroupdesc_sms": "এসএমএসগুলি পাঠাতে এবং দেখতে",
        "permgroupdesc_storage": "আপনার ডিভাইসে ফটো, মিডিয়া এবং ফাইলগুলিতে অ্যাক্সেস",
        "permgrouplab_activityRecognition": "শারীরিক কার্যকলাপ",
        "permgrouplab_calendar": "ক্যালেন্ডার",
        "permgrouplab_calllog": "কল লগ",
        "permgrouplab_camera": "ক্যামেরা",
        "permgrouplab_contacts": "পরিচিতি",
        "permgrouplab_location": "লোকেশন",
        "permgrouplab_microphone": "মাইক্রোফোন",
        "permgrouplab_nearby_devices": "আশেপাশের যন্ত্র",
        "permgrouplab_phone": "ফোন",
        "permgrouplab_sensors": "বডি সেন্সর",
        "permgrouplab_sms": "SMS",
        "permgrouplab_storage": "ফাইল এবং মিডিয়া",
        "permgrouprequest_activityRecognition": "অ্যাপটিকে তোমার কার্যকলাপ জানতে(ট্র্যাক) করতে অনুমতি দাও।",
        "permgrouprequest_calendar": "<b>",
        "permgrouprequest_calllog": "আপনার ফোন কল লগ অ্যাক্সেস করার অনুমতি <b>",
        "permgrouprequest_camera": "<b>",
        "permgrouprequest_contacts": "<b>",
        "permgrouprequest_location": "<b>",
        "permgrouprequest_microphone": "<b>",
        "permgrouprequest_phone": "<b>",
        "permgrouprequest_sensors": "<b>",
        "permgrouprequest_sms": "<b>",
        "permgrouprequest_storage": "<b>",
        "permgrouprequestdetail_location": "আপনি এই অ্যাপ ব্যবহার করার সময়েই শুধু সেটি আপনার লোকেশন অ্যাক্সেস করতে পারবে",
        "permission_request_notification_for_app_with_subtitle": "অনুমতির অনুরোধ করেছে",
        "permlab_acceptHandover": "অন্য কোনও অ্যাপ দিয়ে করে থাকা কল চালিয়ে যান",
        "permlab_accessBackgroundLocation": "ব্যাকগ্রাউন্ডে লোকেশন অ্যাক্সেস অনুমতি দাও",
        "permlab_accessCoarseLocation": "শুধুমাত্র অ্যাপটি খোলা থাকলে আপনার আনুমানিক লোকেশন অ্যাক্সেস করা",
        "permlab_accessDrmCertificates": "DRM শংসাপত্রগুলি অ্যাক্সেস করে",
        "permlab_accessFineLocation": "শুধুমাত্র অ্যাপটি খোলা থাকলে আপনার যথাযথ লোকেশন অ্যাক্সেস করা",
        "permlab_accessImsCallService": "IMS পরিষেবাতে অ্যাক্সেস",
        "permlab_accessLocationExtraCommands": "অতিরিক্ত লোকেশন প্রদানকারী কমান্ডগুলি অ্যাক্সেস করে",
        "permlab_accessNetworkConditions": "নেটওয়ার্ক অবস্থার উপর পর্যবেক্ষণের জন্য নজর রাখে",
        "permlab_accessNetworkState": "নেটওয়ার্ক সংযোগগুলি দেখুন",
        "permlab_accessNotifications": "বিজ্ঞপ্তিগুলি অ্যাক্সেস করে",
        "permlab_accessWifiState": "ওয়াই-ফাই সংযোগগুলি দেখুন",
        "permlab_accessWimaxState": "WiMAX এর সাথে সংযুক্ত হন বা সংযোগ বিচ্ছিন্ন করুন",
        "permlab_access_notification_policy": "'বিরক্ত করবেন না' -তে অ্যাক্সেস",
        "permlab_activityRecognition": "শারীরিক ক্রিয়াকলাপ চিহ্নিত করুন",
        "permlab_addVoicemail": "ভয়েসমেল যোগ করে",
        "permlab_answerPhoneCalls": "ফোন কলের উত্তর দাও",
        "permlab_audioWrite": "আপনার মিউজিক সংগ্রহ পরিবর্তন করুন",
        "permlab_backgroundCamera": "পটভূমিতে ছবি এবং ভিডিও তুলো",
        "permlab_bindCarrierMessagingService": "একটি ক্যারিয়ার মেসেজিং পরিষেবা আবদ্ধ করতে",
        "permlab_bindCarrierServices": "পরিষেবা প্রদানকারীর সাথে যুক্ত হন",
        "permlab_bindCellBroadcastService": "সেল ব্রডকাস্টের মাধ্যমে মেসেজ ফরওয়ার্ড করো",
        "permlab_bindConditionProviderService": "একটি শর্ত প্রদানকারীর পরিষেবা বাঁধাই করে",
        "permlab_bindDreamService": "একটি স্বপ্নের পরিষেবার সাথে যুক্ত হন",
        "permlab_bindNotificationListenerService": "একটি বিজ্ঞপ্তি শ্রোতা পরিষেবাতে সংলগ্ন করে",
        "permlab_bind_connection_service": "টেলিফোন পরিষেবার সাথে ইন্টারঅ্যাক্ট করুন",
        "permlab_bind_incall_service": "কলে-থাকা স্ক্রীণের সাথে ইন্টারঅ্যাক্ট করে",
        "permlab_bluetooth": "ব্লুটুথ ডিভাইসগুলির সাথে যুক্ত করুন",
        "permlab_bluetoothAdmin": "ব্লুটুথ এর সেটিংস অ্যাক্সেস করুন",
        "permlab_bluetooth_advertise": "আশেপাশের ব্লুটুথ যন্ত্রে বিজ্ঞাপন দেখাও",
        "permlab_bluetooth_connect": "যোগ করা ব্লুটুথ যন্ত্রগুলোর সাথে সংযুক্ত হও",
        "permlab_bluetooth_scan": "কাছাকাছি ব্লুটুথ যন্ত্র খুঁজো এবং তার সাথে সংযুক্ত হও",
        "permlab_bodySensors": "শরীরের সেন্সর (হার্ট রেট মনিটারের মত) অ্যাক্সেস করুন",
        "permlab_broadcastSticky": "স্টিকি সম্প্রচার পাঠায়",
        "permlab_callCompanionApp": "সিস্টেমের মাধ্যমে কল দেখুন এবং নিয়ন্ত্রণ করুন।",
        "permlab_callPhone": "সরাসরি ফোন নম্বরগুলিতে কল করে",
        "permlab_camera": "ছবি এবং ভিডিও তোলে",
        "permlab_cameraOpenCloseListener": "কোনও অ্যাপ্লিকেশন বা পরিষেবাকে ক্যামেরা ডিভাইসগুলি খোলা বা বন্ধ হওয়া সম্পর্কে জানার(কলব্যাক) অনুমতি দাও।",
        "permlab_changeNetworkState": "নেটওয়ার্ক সংযোগ পরিবর্তন করে",
        "permlab_changeTetherState": "টিথারিং করা সংযোগকে পরিবর্তন করে",
        "permlab_changeWifiMulticastState": "ওয়াই-ফাই মাল্টিকাস্ট রিসেপশন মঞ্জুর করে",
        "permlab_changeWifiState": "ওয়াই-ফাই এর সাথে সংযুক্ত হন বা সংযোগ বিচ্ছিন্ন করুন",
        "permlab_changeWimaxState": "WiMAX এর স্থিতি পরিবর্তন করুন",
        "permlab_connection_manager": "টেলিকম সংযোগগুলি পরিচালনা করুন",
        "permlab_control_incall_experience": "কলে-থাকা এক ব্যবহারকারী অভিজ্ঞতা সরবরাহ করুন",
        "permlab_createNetworkSockets": "সম্পূর্ণ নেটওয়ার্ক অ্যাক্সেস রয়েছে",
        "permlab_disableKeyguard": "আপনার স্ক্রিন লক অক্ষম করুন",
        "permlab_enableCarMode": "গাড়ী মোড সক্ষম করে",
        "permlab_exemptFromAudioRecordRestrictions": "শব্দ রেকর্ড করার বিধিনিষেধ থেকে বাদ দাও",
        "permlab_expandStatusBar": "স্ট্যাটাস বার সম্প্রসারিত/সঙ্কুচিত করে",
        "permlab_foregroundService": "ফোরগ্রাউন্ডে পরিষেবা চালাও",
        "permlab_fullScreenIntent": "বন্ধ করা যন্ত্রে পূর্ণ পর্দা ক্রিয়া হিসাবে বিজ্ঞপ্তি দেখাও",
        "permlab_getAccounts": "এই ডিভাইসে অ্যাকাউন্টগুলোকে খুজো",
        "permlab_getPackageSize": "অ্যাপ্লিকেশন সঞ্চয়স্থানের জায়গা পরিমাপ করে",
        "permlab_getTasks": "চলমান অ্যাপ্লিকেশান উদ্ধার করে",
        "permlab_handoverStatus": "Android বীম স্থানান্তর স্থিতি গ্রহণ করুন",
        "permlab_highSamplingRateSensors": "উচ্চ নমুনা হারে গ্রাহক তথ্য নাও",
        "permlab_imagesWrite": "আপনার ফটো সংগ্রহ পরিবর্তন করুন",
        "permlab_install_shortcut": "শর্টকাটগুলি ইনস্টল করে",
        "permlab_invokeCarrierSetup": "ক্যারিয়ারের প্রদেয় কনফিগারেশন অ্যাপ্লিকেশানকে দিয়ে কাজ করায়",
        "permlab_killBackgroundProcesses": "অন্যান্য অ্যাপ্লিকেশানগুলিকে বন্ধ করুন",
        "permlab_manageFace": "মুখের সাহায্যে আনলক করার হার্ডওয়্যার ব্যবস্থাপনা",
        "permlab_manageFingerprint": "আঙ্গুলের ছাপ নেওয়ার হার্ডওয়্যার পরিচালনা করো",
        "permlab_manageNetworkPolicy": "নেটওয়ার্ক নীতি পরিচালনা",
        "permlab_manageOngoingCalls": "চলমান কল ব্যবস্থাপনা করো",
        "permlab_manageOwnCalls": "সিস্টেমের মধ্য দিয়ে কলগুলো নাও",
        "permlab_manageProfileAndDeviceOwners": "প্রোফাইল এবং ডিভাইস মালিকদের পরিচালনা করুন",
        "permlab_mediaLocation": "আপনার মিডিয়া সংগ্রহ থেকে অবস্থান পড়ে",
        "permlab_modifyAudioSettings": "আপনার অডিও সেটিংস পরিবর্তন করে",
        "permlab_modifyNetworkAccounting": "নেটওয়ার্ক ব্যবহারের হিসাবরক্ষণ পরিবর্তন করে",
        "permlab_nfc": "নিয়ার ফিল্ড কমিউনিকেশন নিয়ন্ত্রণ করো",
        "permlab_persistentActivity": "অ্যাপ্লিকেশানকে সবসময় চালিত রাখে",
        "permlab_preferredPaymentInfo": "পছন্দের এনএফসি(NFC) পেমেন্ট পরিষেবার তথ্য",
        "permlab_processOutgoingCalls": "আউটগোয়িং কলগুলি পুনঃচালিত করুন",
        "permlab_queryAllPackages": "সব প্যাকেজ কুয়েরি করো",
        "permlab_readCalendar": "ক্যালেন্ডারের ইভেন্ট এবং বিশদ বিবরণ পড়ুন",
        "permlab_readCallLog": "কল লগ পড়ুন",
        "permlab_readCellBroadcasts": "সেল সম্প্রচার মেসেজ পড়ুন",
        "permlab_readContacts": "আপনার পরিচিতিগুলি পড়ুন",
        "permlab_readHistoryBookmarks": "আপনার ওয়েব বুকমার্কগুলি এবং ইতিহাস পড়ুন",
        "permlab_readInstallSessions": "ইনস্টল সেশন পড়ুন",
        "permlab_readNetworkUsageHistory": "তারিখ অনুযায়ী নেটওয়ার্কের ব্যবহার পড়ে",
        "permlab_readPhoneNumbers": "ফোন নম্বরগুলি পড়া হোক",
        "permlab_readPhoneState": "ফোনের স্থিতি এবং পরিচয় পড়ুন",
        "permlab_readSms": "আপনার টেক্সট মেসেজ পড়ুন (SMS বা MMS)",
        "permlab_readSyncSettings": "সিঙ্ক সেটিংস পড়ে",
        "permlab_readSyncStats": "সিঙ্ক পরিসংখ্যান পড়ে",
        "permlab_receiveBootCompleted": "প্রারম্ভেই চালান",
        "permlab_receiveMms": "টেক্সট মেসেজ পান (MMS)",
        "permlab_receiveSms": "টেক্সট মেসেজ পান (SMS)",
        "permlab_receiveWapPush": "টেক্সট মেসেজ পান (WAP)",
        "permlab_recordAudio": "অডিও রেকর্ড",
        "permlab_recordBackgroundAudio": "পটভূমিতে অডিও রেকর্ড করতে পারবে",
        "permlab_register_call_provider": "নতুন টেলিকম সংযোগগুলির নিবন্ধন",
        "permlab_register_sim_subscription": "নতুন টেলিকম সিম সংযোগগুলির নিবন্ধন",
        "permlab_removeDrmCertificates": "DRM শংসাপত্রগুলি সরান",
        "permlab_reorderTasks": "চলমান অ্যাপ্লিকেশান পুনর্বিন্যাস করে",
        "permlab_requestDeletePackages": "প্যাকেজ মোছার অনুরোধ",
        "permlab_requestIgnoreBatteryOptimizations": "ব্যাটারি অপ্টিমাইজেশন উপেক্ষা করার জন্য অনুমতি চাওয়া",
        "permlab_requestInstallPackages": "প্যাকেজগুলি ইনস্টল করার অনুরোধ",
        "permlab_requestPasswordComplexity": "স্ক্রিন লকের জটিলতা জানার অনুরোধ করো",
        "permlab_route_media_output": "মিডিয়া আউটপুট রুট করুন",
        "permlab_runInBackground": "পটভূমিতে চালু থাকুক",
        "permlab_sdcardRead": "শেয়ার করা স্টোরেজের কন্টেন্ট পড়ুন",
        "permlab_sdcardWrite": "শেয়ার করা স্টোরেজের কন্টেন্ট মুছে ফেলুন বা পরিবর্তন করুন",
        "permlab_sendSms": "এসএমএস(SMS) পাঠানো ও দেখার অনুমতি দাও",
        "permlab_setAlarm": "একটি অ্যালার্ম সেট করুন",
        "permlab_setInputCalibration": "ইনপুট ডিভাইস ক্রমাঙ্কন পরিবর্তন করে",
        "permlab_setTimeZone": "সময় অঞ্চল সেট করে",
        "permlab_setWallpaper": "ওয়ালপেপার সেট করে",
        "permlab_setWallpaperHints": "আপনার ওয়ালপেপারের আকার সামঞ্জস্য করুন",
        "permlab_sim_communication": "সিম এ আদেশগুলি পাঠান",
        "permlab_startViewPermissionUsage": "\"অনুমতি ব্যবহারের দৃশ্য\" শুরু করো",
        "permlab_statusBar": "স্ট্যাটাস বার নিষ্ক্রিয় অথবা সংশোধন করে",
        "permlab_statusBarService": "স্থিতি দন্ডে থাকুন",
        "permlab_subscribedFeedsRead": "গ্রাহক হিসেবে নেওয়া ফিডগুলি পড়ে",
        "permlab_systemAlertWindow": "এই অ্যাপটি অন্যান্য অ্যাপের উপরে প্রদর্শিত পারে",
        "permlab_systemCamera": "সিস্টেম ক্যামেরা ব্যবহার করে ছবি এবং ভিডিও নেওয়ার জন্য অ্যাপ্লিকেশন বা পরিষেবা অ্যাক্সেসের অনুমতি দাও",
        "permlab_transmitIr": "ইনফ্রারেড ট্রান্সমিট করে",
        "permlab_uninstall_shortcut": "শর্টকাটগুলি আনইনস্টল করে",
        "permlab_useBiometric": "বায়োমেট্রিক হার্ডওয়্যার ব্যবহার করুন",
        "permlab_useDataInBackground": "পটভূমিতে ডেটা ব্যবহার করো",
        "permlab_useFaceAuthentication": "মুখের সাহায্যে আনলক করার হার্ডওয়্যার ব্যবহার করা",
        "permlab_useFingerprint": "আঙ্গুলের ছাপ নেওয়ার হার্ডওয়্যার ব্যবহার করুন",
        "permlab_use_sip": "SIP কল করুন/গ্রহণ করুন",
        "permlab_uwb_ranging": "আশেপাশের অতি-চওড়াপাল্লা(আলট্রা ওয়াইডব্যান্ড) যন্ত্রগুলির আপেক্ষিক অবস্থান নির্ণয় করুন",
        "permlab_vibrate": "ভাইব্রেশন নিয়ন্ত্রণ করুন",
        "permlab_videoWrite": "তোমার ভিডিও সংগ্রহ পরিবর্তন করো",
        "permlab_wakeLock": "ঘুমানো থেকে ফোনটিকে প্রতিরোধ করে",
        "permlab_writeCalendar": "ক্যালেন্ডারে ইভেন্ট যোগ বা পরিবর্তন করে এবং মালিকদের অজ্ঞাতেই অতিথিদের ইমেল পাঠায়",
        "permlab_writeCallLog": "কল লগ লিখুন",
        "permlab_writeContacts": "আপনার পরিচিতিগুলি সংশোধন করুন",
        "permlab_writeGeolocationPermissions": "ব্রাউজারের ভূঅবস্থানিক অনুমতিগুলি সংশোধন করে",
        "permlab_writeHistoryBookmarks": "ওয়েব বুকমার্কগুলি এবং ইতিহাস লিখুন",
        "permlab_writeSettings": "সিস্টেম সেটিংস পরিবর্তন করুন",
        "permlab_writeSyncSettings": "সমন্বয় চালু এবং বন্ধ করা টগল করুন"
    },
    "sidebars": {
        "donate": {
            "bank_transfer_name": "নাম",
            "bitcoin_alt": "Bitcoin-এর মাধ্যমে অনুদান",
            "credit_card": "ক্রেডিট কার্ড",
            "crypto": "ক্রিপ্টো",
            "currency": "অর্থ",
            "flattr_alt": "Flattr-এর মাধ্যমে অনুদান",
            "heading": "অনুদান দাও",
            "hellotux": "👕 টি-শার্ট 👕 দিচ্ছে",
            "hellotux_alt": "HELLOTUX",
            "hellotux_donation": "F-Droid প্রতিটি শার্ট বিক্রির জন্য €৩ পাবে।",
            "liberapay_alt": "Liberapay-এর মাধ্যমে অনুদান",
            "litecoin_alt": "Litecoin-এর মাধ্যমে অনুদান",
            "more_options": "আরো পছন্দ",
            "opencollective_alt": "আমাদের \"কালেকটিভ\" এ অনুদান",
            "paypal": "পেপাল",
            "paypal_alt": "পেপ্যাল-এর মাধ্যমে অনুদান",
            "powered_by_donations": "F-Droid আপনাদের অনুদানের মাধ্যমেই চলে!",
            "via_bank_transfer": "ব্যাংক ট্রান্সফার"
        },
        "lang": {
            "change": "পাল্টাও"
        },
        "last_updated": {
            "heading": "শেষ আপডেট করা হয়েছে"
        },
        "latest_packages": {
            "heading": "নতুন অ্যাপ"
        },
        "news": {
            "heading": "খবর"
        },
        "search": {
            "heading": "অ্যাপ খুজো",
            "noscript": "এটার জন্য JavaScript চালু করা থাকতে হবে",
            "search": "অনুসন্ধান"
        }
    }
}
